Final Project
…
5) Fit a linear model predicting the total bike rental demand from daily temperature. What kind of insights can you generate? (make sure to write the linear model and interpret it in the context of the data)

#Group by hourly
capitalbike_dtemp <- capitalbike %>% group_by(dteday) %>% summarize(cnt_daily1 =sum(cnt, na.rm = T),
                                                                    meantemp1 =mean(temp, na.rm = T)) 
capitalbike_dtemp

## # A tibble: 731 x 3
##    dteday    cnt_daily1 meantemp1
##    <chr>          <dbl>     <dbl>
##  1 1/1/2011         985     0.344
##  2 1/1/2012        2294     0.37 
##  3 1/10/2011       1321     0.151
##  4 1/10/2012       3598     0.309
##  5 1/11/2011       1263     0.169
##  6 1/11/2012       2177     0.274
##  7 1/12/2011       1162     0.173
##  8 1/12/2012       4097     0.382
##  9 1/13/2011       1406     0.165
## 10 1/13/2012       3214     0.274
## # ... with 721 more rows
…
6) Fit another linear model predicting total daily bike rentals from daily feeling temperature. Write the linear model, interpret the slope, etc. Is the temperature or feeling temperature a better predictor of bike rentals?

capitalbike_ftemp <- capitalbike %>% group_by(dteday) %>% summarize(cnt_daily2 =sum(cnt, na.rm = T),
                                                                    meantemp2 =mean(atemp, na.rm = T))
capitalbike_ftemp

## # A tibble: 731 x 3
##    dteday    cnt_daily2 meantemp2
##    <chr>          <dbl>     <dbl>
##  1 1/1/2011         985     0.364
##  2 1/1/2012        2294     0.376
##  3 1/10/2011       1321     0.151
##  4 1/10/2012       3598     0.319
##  5 1/11/2011       1263     0.191
##  6 1/11/2012       2177     0.283
##  7 1/12/2011       1162     0.160
##  8 1/12/2012       4097     0.382
##  9 1/13/2011       1406     0.151
## 10 1/13/2012       3214     0.249
## # ... with 721 more rows
…
